1. c2-c4 g8-f6
2. b1-c3 e7-e6
2. d2-d4 f8-b4
4. e2-e3 e8-g8
5. g1-f3 b7-b6
6. f1-d3 c8-b7
7. e1-g1 d7-d5
8. c4-d5 e6-d5
9. f3-e5 b8-d7
10. f2-f4 f6-e4
11. c3-e4 d5-e4
12. d3-c4 d8-e7
13. a2-a3 b4-d6
14. b2-b4 d7-f6
15. c1-b2 c7-c6
16. d1-c2 b6-b5
17. c4-b3 a7-a5
18. h2-h3 a5-b4
19. a3-b4 d6-b4
20. a1-a8 b7-a8
21. f1-a1 f6-d5
22. a1-a8 f8-a8
23. c2-c6 d5-c7
24. b3-f7 g8-h8
25. c6-e4 a8-f8
26. d4-d5 f8-f7
27. e5-f7 e7-f7
28. e4-b4 c7-d5
29. b4-b5 d5-e3
30. b5-b8 f7-g8
31. b2-g7 h8-g7
32. b8-e5 g7-f7
33. e5-e3 g8-g6
34. g1-h2 h7-h5
35. e3-b3 f7-f8
36. b3-b8 f8-g7
37. b8-e5
